{
  "description": "CHA - Background noise measurement.",
  "properties": {
    "type": {
      "enum": [ "chaThirdOctaveBands"]
    },
    "measureBothEars":{
      "type": "boolean",
      "Description": "If true, measure both ears, using channels SMICR0 (left) and SMICR1 (right).",
      "default": false
    },
    "skip": {
      "type": "boolean",
      "description": "Allows user to skip the response area.",
      "default": false
    },
    "autoSubmit": {
      "type": "boolean",
      "description": "Go straight to next page once this page is complete.",
      "default": false
    },
    "autoBegin": {
      "type": "boolean",
      "description": "Go straight into exam, without having to press the 'Begin' button.",
      "default": false
    },
    "delay": {
      "type": "integer",
      "description": "delay, in ms, between autobegin and actual start of exam",
      "minimum": 0
    },
    "displayType": {
      "type": "string",
      "enum": ["MPANL","Vanilla"],
      "description": "Style of TOB. MPANL is the legacy version of TOB that displays limits on the bar graph and Vanilla will have no markings on the bar graph and display a table.",
      "default": "MPANL"
    },
    "standard":{
      "type": "object",
      "properties": {
        "name": {
          "type": "string",
          "description": "The standard name, i.e. ANSI MPANL"
        },
        "data": {
          "type": "array",
          "description": "Array of Frequency/Level Pairs",
          "items": {
            "description":"Frequency/Level Pair.",
            "properties":{
              "F":{
                "type":"integer",
                "description":"Frequency (Hz)"
              },
              "L":{
                "type": "integer",
                "description":"Level (dB SPL)"
              }
            }
          }
        }
      }
    },
    "examInstructions": {
      "type": "string",
      "description": "Replaces the top-level instruction text on the CHA exam pages (each page after starting page)"
    },
    "examProperties": {
      "type": "object",
      "description": "Allowable properties, from cha documentation",
      "properties": {
        "BufferLength": {
          "type": "integer",
          "description": "Minimum number of samples to consider for third octave result. (samples) Note the CHA may use more samples than specified.",
          "default": 98304,
          "maximum": 4294959104,
          "minimum": 1
        },
        "InputChannel": {
          "type": "string",
          "enum": ["SMICR0", "SMICR1", "SMICL0", "SMICL1", "DLINE0"],
          "description": "Input channel to use.",
          "default": "SMICR0"
        }
      }
    }
  }
}