{
  "description": "Accelerated Threshold Exam Properties",
  "allOf": [
    { "$ref": "/cha/definitions/hughsonWestlakeExamProperties.json" },
    {
      "properties": {
        "SVM_C": {
          "type": "integer",
          "description": "'C' parameter (weighting for loss function) for the SVM algorithm.",
          "default": 100,
          "maximum": 1000,
          "minimum": 1
        },
        "SVM_D": {
          "type": "number",
          "description": "'d' parameter (margin offset) for the SVM algorithm.",
          "default": 0.01,
          "maximum": 0.1,
          "minimum": 0.001
        },
        "SVM_M": {
          "type": "integer",
          "description": "'m' parameter (margin weighting) for the SVM algorithm.",
          "default": 10,
          "maximum": 100,
          "minimum": 1
        },
        "SVM_MaxJump": {
          "type": "integer",
          "description": "Maximum size of any change in level the algorithm may make.",
          "default": 20,
          "maximum": 40,
          "minimum": 1
        },
        "SVM_StagDist": {
          "type": "integer",
          "description": "Stagnation distance criterion. Changes within this distance lead to the satisfaction of the stagnation end condition.",
          "default": 5,
          "maximum": 10,
          "minimum": 1
        },
        "SVM_N_StagSteps": {
          "type": "integer",
          "description": "Number of presentations to consider to evaluate stagnation.",
          "default": 3,
          "maximum": 6,
          "minimum": 3
        },
        "SVM_MinStep": {
          "type": "integer",
          "description": "Minimum number of presentations before the exam can end.",
          "default": 5,
          "maximum": 10,
          "minimum": 3
        }
      }
    }
  ]
}