[
    {
        "DpLow": {
            "Frequency": 1342.7842,
            "Amplitude": 23.448584,
            "Phase": 3.0970924,
            "NoiseFloor": -3.365397
        },
        "DpHigh": {
            "Frequency": 2319.3545,
            "Amplitude": 27.133888,
            "Phase": -1.843049,
            "NoiseFloor": 25.634224
        },
        "F1": {
            "Frequency": 1668.3076,
            "Amplitude": 33.74926,
            "Phase": -0.9790231
        },
        "F2": {
            "Frequency": 1993.831,
            "Amplitude": 26.470518,
            "Phase": -1.1047146
        },
        "TestAverages": 108
    },
    {
        "DpLow": {
            "Frequency": 1342.7842,
            "Amplitude": 23.448584,
            "Phase": 3.0970924,
            "NoiseFloor": -3.365397
        },
        "DpHigh": {
            "Frequency": 2319.3545,
            "Amplitude": 27.133888,
            "Phase": -1.843049,
            "NoiseFloor": 25.634224
        },
        "F1": {
            "Frequency": 1668.3076,
            "Amplitude": 33.74926,
            "Phase": -0.9790231
        },
        "F2": {
            "Frequency": 1993.831,
            "Amplitude": 26.470518,
            "Phase": -1.1047146
        },
        "TestAverages": 108
    }
]